Use cases • ineptR
…
#>  1 1       S7A2011 S7A2011   2011      20110101  1           Dim_Num1_S7A2011
#>  2 1       S7A2012 S7A2012   2012      20120101  1           Dim_Num1_S7A2012
#>  3 1       S7A2013 S7A2013   2013      20130101  1           Dim_Num1_S7A2013
#>  4 1       S7A2014 S7A2014   2014      20140101  1           Dim_Num1_S7A2014
#>  5 1       S7A2015 S7A2015   2015      20150101  1           Dim_Num1_S7A2015
#>  6 1       S7A2016 S7A2016   2016      20160101  1           Dim_Num1_S7A2016
#>  7 1       S7A2017 S7A2017   2017      20170101  1           Dim_Num1_S7A2017
#>  8 1       S7A2018 S7A2018   2018      20180101  1           Dim_Num1_S7A2018
#>  9 1       S7A2019 S7A2019   2019      20190101  1           Dim_Num1_S7A2019
#> 10 1       S7A2020 S7A2020   2020      20200101  1           Dim_Num1_S7A2020
#> 11 1       S7A2021 S7A2021   2021      20210101  1           Dim_Num1_S7A2021
#> 12 1       S7A2022 S7A2022   2022      20220101  1           Dim_Num1_S7A2022
#> 
#> [[2]]
#> # A tibble: 344 × 7
#>    dim_num cat_id  categ_cod categ_dsg         categ_ord categ_nivel value_id   
#>    <chr>   <chr>   <chr>     <chr>             <chr>     <chr>       <chr>      
#>  1 2       PT      PT        Portugal          1         1           Dim_Num2_PT
#>  2 2       1       1         Continente        2         2           Dim_Num2_1 
#>  3 2       11      11        Norte             3         3           Dim_Num2_11
#>  4 2       111     111       Alto Minho        4         4           Dim_Num2_1…
#>  5 2       1111601 1111601   Arcos de Valdevez 5         5           Dim_Num2_1…
#>  6 2       1111602 1111602   Caminha           42        5           Dim_Num2_1…
#>  7 2       1111603 1111603   Melgaço           57        5           Dim_Num2_1…
#>  8 2       1111604 1111604   Monção            71        5           Dim_Num2_1…
#>  9 2       1111605 1111605   Paredes de Coura  96        5           Dim_Num2_1…
#> 10 2       1111606 1111606   Ponte da Barca    113       5           Dim_Num2_1…
#> # ℹ 334 more rows
…
